Material on Survival Analyses - Additive regression
…
Additive regression

library(survival)
library(tibble)
library(dplyr)

At the university hospital of the University of Massachusetts one has for a number of years studied the survival of patients admitted with an acute myocardial infarction (AMI- aka HEART ATTACK!). One aim of the study has been to investigate whether the survival of AMI patients has improved over time. A number of covariates were measured at hospitalization. In addition to information on time of hospitalization (here given in five years periods), we will in this problem restrict attention to the two demographic covariates age and sex, one covariate that is related to the seriousness of the AMI (amount of “heart enzyme”), and one covariate that gives information on whether the patient has had an AMI earlier or not. Further we will restrict attention to the first three years after AMI, so patients who live longer than \(1095 = 3 \times 365\) days have been censored at that time.

You may read the AMI-data into R by the command:

ami=read.table("https://www.med.uio.no/imb/english/research/centres/ocbe/courses/imb9335/ami.txt",header=T) %>% as_tibble()
ami

# A tibble: 481 × 8
      id  days status   per   age   sex enzym  prev
   <int> <int>  <int> <int> <int> <int> <int> <int>
 1     1     1      1     1    62     1   485     0
 2     2     1      1     1    78     1   910     1
 3     3     1      1     1    81     1   320     0
 4     4     1      1     1    79     1  3290     1
 5     5     2      1     1    60     1  2500     1
 6     6     2      1     1    72     0    99     0
 7     7     2      1     1    60     1  1200     0
 8     8     3      1     1    83     1   160     0
 9     9     3      1     1    78     0    66     1
10    10  1095      0     1    72     1    99     0
# ℹ 471 more rows
…
