Cox Regression (low-dim) – Material on Survival Analyses
…
Cox Regression (low-dim)

library(survival)
library(tibble)

From 1962 to 1969 a number of patients with liver cirrhosis at several hospitals in Copenhagen were included in a randomized clinical trial. The purpose of the study was to investigate whether patients treated with the hormone prednisone had a better survival than patients who got an inactive placebo treatment. In this exercise, we will restrict attention to the \(386\) patients in the study who had no excess fluid in the abdomen at entry. (Source: Andersen, Borgan, Gill & Keiding, Springer, 1993.)

We will study the effect of treatment with prednisone. We will also investigate the effect on survival of the covariates sex, age, and prothrombin index (a measurement based on a blood test of some coagulation factors produced by the liver, in percent of the normal value).

You may read the data into R by the command:

liver = read.table("https://www.med.uio.no/imb/english/research/centres/ocbe/courses/imb9335/liver.txt", header=T) %>% as_tibble()
liver

# A tibble: 386 × 6
   status  time treat   sex   age  prot
    <int> <int> <int> <int> <int> <int>
 1      0    22     0     0    75    94
 2      0    24     0     0    53    26
 3      0    24     1     0    76    43
 4      0    25     0     1    46   100
 5      1    27     0     1    76    71
 6      0    29     0     1    51    68
 7      0    30     1     1    49    72
 8      0    30     0     1    36    84
 9      0    30     1     1    54    60
10      1    33     1     0    60   100
# ℹ 376 more rows
…
