Material on Survival Analyses - Frailty models for clustered data
…
typediab: type of diabetes (1= juvenile age at onset < 20 years , 2=adult)

time: follow-up time in months

status: status for eye (0=censored, 1=blindness)

trt: treatment of eye (1=control eye, 2=treated eye)

Before you start, you will have to read the data. Use the R-command:

eye=read.table("https://www.med.uio.no/imb/english/research/centres/ocbe/courses/imb9335/retinopathy.txt", header=T) %>% as_tibble()
eye

# A tibble: 394 × 7
      id trteye ageonset typediab status  time   trt
   <int>  <int>    <int>    <int>  <int> <dbl> <int>
 1     5      2       28        2      0 46.2      1
 2    14      1       12        1      1 31.3      1
 3    16      1        9        1      0 42.3      1
 4    25      2        9        1      0 20.6      1
 5    29      2       13        1      1  0.3      1
 6    46      1       12        1      1 54.3      1
 7    49      1        8        1      1 10.8      1
 8    56      1       12        1      0 23.2      1
 9    61      1       16        1      0  1.47     1
10    71      1       21        2      1 13.8      1
# ℹ 384 more rows
…
