Multi-state models – Material on Survival Analyses
…
The following objects are masked from 'package:stats':

    filter, lag

The following objects are masked from 'package:base':

    intersect, setdiff, setequal, union

In this exercise, we will see how we may find the Nelson-Aalen estimates for the cumulative transition intensities and the Aalen-Johansen estimates for the transition probabilities in a Markov illness-death model. To this end, we will use the bone marrow transplantation data described in example 1.13 in the ABG-book and used for illustration in example 3.16. To read the data into R you may give the command:

bonemarrow = read.table("https://www.med.uio.no/imb/english/research/centres/ocbe/courses/imb9335/bone-marrow.txt",header=T) %>% as_tibble()
bonemarrow %>% select(T2, DF, TP, P)

# A tibble: 137 × 4
      T2    DF    TP     P
   <int> <int> <dbl> <int>
 1  2081     0    13     1
 2  1602     0    18     1
 3  1496     0    12     1
 4  1462     0    13     1
 5  1433     0    12     1
 6  1377     0    12     1
 7  1330     0    17     1
 8   996     0    12     1
 9   226     0    10     1
10  1199     0    29     1
# ℹ 127 more rows
…
tmat = transMat(x = list(c(2,3),c(3),c()), names = c("transplanted","recovered","relapsed.dead"))
tmat

               to
from            transplanted recovered relapsed.dead
  transplanted            NA         1             2
  recovered               NA        NA             3
  relapsed.dead           NA        NA            NA

To perform the estimation, we need to convert the data-frame to a long format, where there are 2-3 lines for each patient:

bonemarrow.long = msprep(time=c(NA,"TP","T2"), status=c(NA,"P","DF"),data=bonemarrow,trans=tmat)
bonemarrow.long %>% as_tibble()

# A tibble: 394 × 8
      id  from    to trans Tstart Tstop  time status
   <dbl> <dbl> <dbl> <dbl>  <dbl> <dbl> <dbl>  <dbl>
 1     1     1     2     1      0    13    13      1
 2     1     1     3     2      0    13    13      0
 3     1     2     3     3     13  2081  2068      0
 4     2     1     2     1      0    18    18      1
 5     2     1     3     2      0    18    18      0
 6     2     2     3     3     18  1602  1584      0
 7     3     1     2     1      0    12    12      1
 8     3     1     3     2      0    12    12      0
 9     3     2     3     3     12  1496  1484      0
10     4     1     2     1      0    13    13      1
# ℹ 384 more rows
…
