Case-control studies – Material on Survival Analyses
…
library(survival)
library(glmnet)
library(tibble)
library(dplyr)

In this exercise we will use data from a cohort of \(1720\) female patients who were discharged from two tuberculosis sanatoria in Massachusetts between 1930 and 1956 to investigate breast cancer risk of radiation exposure due to fluoroscopy. Radiation doses have been estimated for \(1022\) women who received radiation exposure to the chest from X-ray fluoroscopy lung examinations. Some women had multiple exposures to radiation. The remaining \(698\) women in the cohort received treatments that did not require fluoroscopic monitoring and were radiation unexposed. The patients had been followed up until the end of 1980, by which time \(75\) breast cancer cases were observed. (Source: Hrubec et al., Cancer Research, 1989)

For this cohort radiation data have been collected for all \(1720\) women. But the workload of exposure data collection would have been reduced if the investigators had used a cohort sampling design. In this exercise we will look at estimation based on the full cohort and for nested case-control and case-cohort samples selected from the full cohort.

We first look at the cohort data. You may read these data into R by the command

cohort=read.table("https://www.med.uio.no/imb/english/research/centres/ocbe/courses/imb9335/radiationbreast.cohort.txt", header=T) %>% as_tibble()
cohort

# A tibble: 1,720 × 6
      id   dose number ageentry ageexit status
   <int>  <dbl>  <int>    <dbl>   <dbl>  <int>
 1     1 0           0     14.6    47.4      0
 2     2 0           0     14.2    52.6      0
 3     3 0           0     17.5    69.8      0
 4     4 0           0     14.0    46.3      0
 5     5 0           0     16.5    61.7      0
 6     6 0.0660      4     16.0    58.6      0
 7     7 1.25      108     13.0    62.3      0
 8     8 0           0     13.2    53.5      0
 9     9 0           0     17.3    42.5      1
10    10 0.141      32     19.0    22.6      0
# ℹ 1,710 more rows
…
               exp(coef) exp(-coef) lower .95 upper .95
log2(dose + 1)     1.634     0.6122      1.19     2.243

Concordance= 0.586  (se = 0.034 )
Likelihood ratio test= 8.64  on 1 df,   p=0.003
Wald test            = 9.21  on 1 df,   p=0.002
Score (logrank) test = 9.44  on 1 df,   p=0.002

We then consider nested case-control data with two controls per case \((m=2)\). You may read these data into R by the command

ncc=read.table("https://www.med.uio.no/imb/english/research/centres/ocbe/courses/imb9335/radiationbreast.ncc.txt", header=T) %>% as_tibble()
ncc

# A tibble: 225 × 8
      id  dose number ageentry ageexit status setno  case
   <int> <dbl>  <int>    <dbl>   <dbl>  <int> <int> <int>
 1     9 0          0    17.3     42.5      1     1     1
 2  2717 0          0    31.2     83.2      0     1     0
 3   311 0          0    14.4     61.7      0     1     0
 4    22 0.617     39    17.2     25.4      1     2     1
 5    66 0.259     27    11.5     44.8      0     2     0
 6   401 1.83     111     5.25    51.4      0     2     0
 7    29 0.594     36    17.7     48.5      1     3     1
 8  3027 2.63     267    21.5     73.8      0     3     0
 9  2349 0.807     82    23.4     69.7      0     3     0
10    31 0          0    12.5     36.6      1     4     1
# ℹ 215 more rows
…
Concordance= 0.563  (se = 0.058 )
Likelihood ratio test= 5.39  on 1 df,   p=0.02
Wald test            = 5.22  on 1 df,   p=0.02
Score (logrank) test = 5.39  on 1 df,   p=0.02

Explain why these commands maximize the partial likelihood for nested case-control data. Perform the commands and compare the result with those you obtained for the cohort data.

We then consider case-cohort data with a subcohort of \(150\) women. You may read these data into R by the command

caseco=read.table("https://www.med.uio.no/imb/english/research/centres/ocbe/courses/imb9335/radiationbreast.caseco.txt", header=T) %>% as_tibble()
caseco

# A tibble: 218 × 7
      id  dose number ageentry ageexit status  subc
   <int> <dbl>  <int>    <dbl>   <dbl>  <int> <int>
 1  2133 0          0     33.3    68.6      0     1
 2  2608 0.826     84     25.8    67.6      0     1
 3   497 0          0     16.2    60.6      0     1
 4  2658 1.62     193     24.4    63.7      0     1
 5  2611 0          0     24.2    68.5      0     1
 6  3152 0          0     36.5    75.7      0     1
 7   118 0.974     59     16.3    34.2      0     1
 8  3352 0          0     27.9    39.3      1     1
 9  2210 1.51     181     20.8    54.0      0     1
10   165 0.248     15     10.2    19.1      0     1
# ℹ 208 more rows
…
Finally we consider stratified case-cohort data where the sub-cohort consists of 50 women selected from each of the three strata:

women with no fluoroscopic examinations (698 women)

women with 1-149 fluoroscopic examinations (765 women)

women with 150 or more fluoroscopic examinations (257 women)

You may read the stratified case-cohort data into R by the command:

stratcaseco=read.table("https://www.med.uio.no/imb/english/research/centres/ocbe/courses/imb9335/radiationbreast.stratcaseco.txt", header=T) %>% as_tibble()
stratcaseco

# A tibble: 221 × 8
      id  dose number ageentry ageexit status  subc stratum
   <int> <dbl>  <int>    <dbl>   <dbl>  <int> <int>   <int>
 1  2894     0      0     29.3    39.8      0     1       1
 2  2885     0      0     40.6    76.4      0     1       1
 3  2490     0      0     18.3    40.9      0     1       1
 4  2717     0      0     31.2    83.2      0     1       1
 5  3015     0      0     29.7    60.4      0     1       1
 6    73     0      0     16.3    64.6      0     1       1
 7    44     0      0     17.9    19.5      0     1       1
 8  3277     0      0     26.1    70.4      0     1       1
 9  2873     0      0     25.6    62.9      0     1       1
10  2423     0      0     24.8    62.1      0     1       1
# ℹ 211 more rows
…
